{
    "_id": ObjectId("58c1389599409475f902c519"),
    "companyID": "58a6c5b4b9ba9e7b74d55ffc",
    "companyGLN": "500654987321",
    "companyTUEAN": "500987654321",
    "companyCUEAN": "500654321987",
    "companyItemCode": "SUP-001",
    "buyerItemCode": "CUS-001",
    "CUinTU": "8",
    "uMIndicator": "50",
    "uMIndicatorUnit": "KGM",
    "itemPrice": "100",
    "extdLineCost": "110",
    "itemVATCode": "Z-0",
    "description": "Blah",
    "itemRemarks": "Blah",
    "createdBy": "SYSTEM",
    "createdDate": ISODate("2017-03-09T11:12:21.530Z"),
    "updatedBy": "admin@supplier.co.uk",
    "updatedDate": ISODate("2017-03-09T11:12:21.530Z"),
    "__v": 0
}
{
    "_id": ObjectId("58c138f799409475f902c51a"),
    "companyID": "58a6c5b4b9ba9e7b74d55ffc",
    "companyGLN": "500654987321",
    "companyTUEAN": "500321654987",
    "companyCUEAN": "500987321654",
    "companyItemCode": "SUP-002",
    "buyerItemCode": "CUS-002",
    "CUinTU": "80",
    "uMIndicator": "60",
    "uMIndicatorUnit": "KGM",
    "itemPrice": "20",
    "extdLineCost": "22",
    "itemVATCode": "Z-0",
    "description": "Blah",
    "itemRemarks": "Blah",
    "createdBy": "SYSTEM",
    "createdDate": ISODate("2017-03-09T11:13:59.422Z"),
    "updatedBy": "admin@supplier.co.uk",
    "updatedDate": ISODate("2017-03-09T11:13:59.422Z"),
    "__v": 0
}
